{
  "Actor": {
    "types": ["hunter", "npc"],
    "hunter": {
      "description": "",
      "health": {
        "value": 0,
        "max": 7,
        "unstable": false
      },
      "luck": {
        "value": 7,
        "max": 7
      },
      "xp": {
        "value": 0,
        "max": 5
      },
      "attributes": {
        "charm": {
          "value": 0,
          "mod": 0
        },
        "cool": {
          "value": 0,
          "mod": 0
        },
        "sharp": {
          "value": 0,
          "mod": 0
        },
        "tough": {
          "value": 0,
          "mod": 0
        },
        "weird": {
          "value": 0,
          "mod": 0
        }
      }
    },
    "npc": {}
  },
  "Item": {
    "types": ["item", "move", "archetype", "improvement", "weapon"],
    "item": {
      "description": "",
      "quantity": 1,
      "weight": 0,
      "tags": ""
    },
    "move": {
      "archetype": "",
      "code": "",
      "language": "en",
      "attribute": "",
      "description": ""
    },
    "archetype": {
      "code": "",
      "language": "en",
      "description": "",
      "stats": [],
      "selected": 0,
      "movesAtStart": 3
    },
    "improvement": {
      "code": "",
      "language": "en",
      "description": "",
      "archetype": {},
      "advanced": false,
      "improved": "",
      "max": {},
      "date": null
    },
    "weapon": {
      "code": "",
      "language": "en",
      "damage": 0,
      "range": [],
      "area": false,
      "attributes": [],
      "form": null,
      "business-end": null,
      "material": null
    }
  }
}
